{
    "KPlugin": {
        "Description": "Belgian national railway.",
        "Description[ca@valencia]": "Ferrocarrils nacionals belgues.",
        "Description[ca]": "Ferrocarrils nacionals belgues.",
        "Description[cs]": "Belgické národní železnice.",
        "Description[de]": "Nationale Eisenbahn in Belgien.",
        "Description[en_GB]": "Belgian national railway.",
        "Description[es]": "Compañía ferroviaria belga.",
        "Description[et]": "Belgia üleriigiline raudtee.",
        "Description[fi]": "Belgian kansallinen rautatie.",
        "Description[fr]": "Chemins de fer nationaux belges.",
        "Description[it]": "Ferrovie nazionali belghe.",
        "Description[ka]": "ბელგიური ნაციონალური რკინიგზა.",
        "Description[ko]": "벨기에 국유 철도입니다.",
        "Description[nl]": "Belgische nationale spoorweg.",
        "Description[pl]": "Belgijskie koleje państwowe.",
        "Description[pt]": "Caminhos de ferro nacionais da Bélgica.",
        "Description[pt_BR]": "Ferrovia nacional belga.",
        "Description[ru]": "Бельгийские национальные железные дороги.",
        "Description[sl]": "Belgijske nacionalne železnice.",
        "Description[sv]": "Belgisk statsjärnväg.",
        "Description[tr]": "Belçika ulusal demiryolları.",
        "Description[uk]": "Бельгійська державна залізниця.",
        "Description[x-test]": "xxBelgian national railway.xx",
        "Description[zh_CN]": "比利时国家铁路。",
        "Name": "National Railway Company of Belgium (NMBS/SNCB)",
        "Name[ca@valencia]": "Companyia Nacional de Ferrocarrils de Bèlgica (NMBS/SNCB)",
        "Name[ca]": "Companyia Nacional de Ferrocarrils de Bèlgica (NMBS/SNCB)",
        "Name[de]": "Nationale Gesellschaft der Belgischen Eisenbahnen (NMBS/SNCB)",
        "Name[en_GB]": "National Railway Company of Belgium (NMBS/SNCB)",
        "Name[es]": "National Railway Company of Belgium (NMBS/SNCB)",
        "Name[et]": "National Railway Company of Belgium (NMBS/SNCB)",
        "Name[fi]": "Belgian kansallinen rautatieyhtiö (NMBS/SNCB)",
        "Name[fr]": "Société nationale des chemins de fer belges (NMBS/SNCB)",
        "Name[it]": "Compagnia ferroviaria nazionale del Belgio (NMBS/SNCB)",
        "Name[ko]": "벨기에 국유 철도(NMBS/SNCB)",
        "Name[nl]": "National Railway Company of Belgium (NMBS/SNCB)",
        "Name[pl]": "Państwowa spółka kolejowa Belgii (NMBS/SNCB)",
        "Name[pt]": "Companhia Nacional de Caminhos de Ferro da Bélgica (NMBS/SNCB)",
        "Name[pt_BR]": "National Railway Company of Belgium (NMBS/SNCB)",
        "Name[ru]": "National Railway Company of Belgium (NMBS/SNCB)",
        "Name[sk]": "National Railway Company of Belgium (NMBS/SNCB)",
        "Name[sl]": "Nacionalna železniška družba Belgije (NMBS/SNCB)",
        "Name[sv]": "Belgiens statsjärnvägsbolag (NMBS/SNCB)",
        "Name[tr]": "Belçika Ulusal Demiryolları Şirketi (NMBS/SNCB)",
        "Name[uk]": "Національна залізнична компаній Бельгії (NMBS/SNCB)",
        "Name[x-test]": "xxNational Railway Company of Belgium (NMBS/SNCB)xx"
    },
    "attribution": {
        "homepage": "https://www.belgiantrain.be/",
        "isProprietary": true,
        "name": "Belgian National Rail"
    },
    "coverage": {
        "realtimeCoverage": {
            "area": {
                "coordinates": [
                    [
                        [
                            [
                                6.0519939,
                                49.4607568
                            ],
                            [
                                5.9446655,
                                49.8874072
                            ],
                            [
                                6.5970368,
                                50.2810579
                            ],
                            [
                                6.3682911,
                                50.7706328
                            ],
                            [
                                5.8756124,
                                50.8690119
                            ],
                            [
                                6.0047267,
                                51.2633052
                            ],
                            [
                                4.7791655,
                                51.6578714
                            ],
                            [
                                3.8723668,
                                51.3506123
                            ],
                            [
                                3.4908777,
                                51.3866896
                            ],
                            [
                                3.1054104,
                                51.7190807
                            ],
                            [
                                2.1602145,
                                51.3306752
                            ],
                            [
                                2.7227737,
                                50.568554
                            ],
                            [
                                3.0671458,
                                50.627914
                            ],
                            [
                                3.1934769,
                                50.3897759
                            ],
                            [
                                3.51578,
                                50.3577501
                            ],
                            [
                                3.6171509,
                                50.1633289
                            ],
                            [
                                4.0273538,
                                50.137955
                            ],
                            [
                                3.9595257,
                                49.8479179
                            ],
                            [
                                4.5604469,
                                49.8018995
                            ],
                            [
                                4.7112855,
                                49.8905831
                            ],
                            [
                                4.6979444,
                                49.7047812
                            ],
                            [
                                5.449393,
                                49.3452747
                            ],
                            [
                                6.0519939,
                                49.4607568
                            ]
                        ]
                    ],
                    [
                        [
                            [
                                5.1039445,
                                51.6039645
                            ],
                            [
                                4.7635155,
                                51.6039645
                            ],
                            [
                                4.7635155,
                                51.2813755
                            ],
                            [
                                5.1039445,
                                51.2813755
                            ],
                            [
                                5.1039445,
                                51.6039645
                            ]
                        ]
                    ]
                ],
                "type": "MultiPolygon"
            },
            "region": [
                "BE"
            ]
        }
    },
    "options": {
        "auth": {
            "aid": "sncb-mobi",
            "type": "AID"
        },
        "client": {
            "id": "SNCB",
            "type": "AND"
        },
        "customCaCertificate": "digicert-sha2-secure-server-ca.pem",
        "endpoint": "https://www.belgianrail.be/jp/sncb-nmbs-routeplanner/mgate.exe",
        "locationIdentifierType": "sncb",
        "preferLineNumberProducts": [
            256,
            1024
        ],
        "products": [
            {
                "bitmasks": [
                    1
                ],
                "id": "high-speed-train",
                "mode": "LongDistanceTrain",
                "name": "high-speed train"
            },
            {
                "bitmasks": [
                    4
                ],
                "id": "long-distance-train",
                "mode": "LongDistanceTrain",
                "name": "InterCity/Peak"
            },
            {
                "bitmasks": [
                    16
                ],
                "id": "suburban",
                "mode": "RapidTransit",
                "name": "S-train"
            },
            {
                "bitmasks": [
                    32
                ],
                "mode": "Bus"
            },
            {
                "bitmasks": [
                    64
                ],
                "id": "local-train",
                "mode": "RapidTransit",
                "name": "local train"
            },
            {
                "bitmasks": [
                    256
                ],
                "id": "metro",
                "mode": "Metro",
                "name": "Metro"
            },
            {
                "bitmasks": [
                    512
                ],
                "id": "bus",
                "mode": "Bus",
                "name": "bus"
            },
            {
                "bitmasks": [
                    1024
                ],
                "id": "tram",
                "mode": "Tramway",
                "name": "tram"
            }
        ],
        "standardLocationIdentifierCountries": [
            88
        ],
        "standardLocationIdentifierType": "uic",
        "ver": "1.16"
    },
    "supportedLanguages": [
        "de",
        "en",
        "fr",
        "nl"
    ],
    "timezone": "Europe/Brussels",
    "type": {
        "hafasMgate": true
    }
}
