{
    "KPlugin": {
        "Description": "Local transport in Bavaria, Germany.",
        "Description[ca@valencia]": "Transport local a Baviera, Alemanya.",
        "Description[ca]": "Transport local a Baviera, Alemanya.",
        "Description[cs]": "Místní doprava v Bavorsku, Německo.",
        "Description[de]": "Lokale Verkehrsmittel in Bayern, Deutschland.",
        "Description[en_GB]": "Local transport in Bavaria, Germany.",
        "Description[es]": "Transporte local de Baviera, Alemania.",
        "Description[et]": "Saksamaa Baieri kohalik transport.",
        "Description[fi]": "Paikallisliikenne Saksan Baijerissa.",
        "Description[fr]": "Transports régionaux dans la région de la Bavière, Allemagne.",
        "Description[it]": "Trasporto locale in Baviera, Germania.",
        "Description[ko]": "독일 바이에른 지역 대중 교통입니다.",
        "Description[nl]": "Lokaal transport in Beieren, Duitsland.",
        "Description[pl]": "Transport lokalny w Bawarii, Niemcy.",
        "Description[pt]": "Transportes locais na região da Baviera, Alemanha.",
        "Description[pt_BR]": "Transporte local na Baviera, Alemanha.",
        "Description[ru]": "Местный транспорт в Баварии, Германия.",
        "Description[sl]": "Lokalni prevoz na Bavarskem v Nemčiji.",
        "Description[sv]": "Lokal transportoperatör i Bayern, Tyskland.",
        "Description[tr]": "Almanya, Bavarya bölgesi yerel taşıma.",
        "Description[uk]": "Місцевий транспорт у Баварії, Німеччина.",
        "Description[x-test]": "xxLocal transport in Bavaria, Germany.xx",
        "Description[zh_CN]": "德国巴伐利亚当地的公共交通。",
        "Name": "Bayern Fahrplan",
        "Name[ca@valencia]": "Bayern Fahrplan",
        "Name[ca]": "Bayern Fahrplan",
        "Name[cs]": "Bayern Fahrplan",
        "Name[de]": "Bayern Fahrplan",
        "Name[en_GB]": "Bayern Fahrplan",
        "Name[es]": "Bayern Fahrplan",
        "Name[et]": "Bayern Fahrplan",
        "Name[fi]": "Bayern Fahrplan",
        "Name[fr]": "Bayern Fahrplan",
        "Name[it]": "Bayern Fahrplan",
        "Name[ko]": "바이에른 시간표",
        "Name[nl]": "Bayern Fahrplan",
        "Name[pl]": "Rozkład jazdy w Bayern",
        "Name[pt]": "Bayern Fahrplan",
        "Name[pt_BR]": "Bayern Fahrplan",
        "Name[ru]": "Bayern Fahrplan",
        "Name[sl]": "Bayern Fahrplan",
        "Name[sv]": "Bayern Fahrplan",
        "Name[tr]": "Bayern Fahrplan",
        "Name[uk]": "Bayern Fahrplan",
        "Name[x-test]": "xxBayern Fahrplanxx"
    },
    "coverage": {
        "realtimeCoverage": {
            "area": {
                "coordinates": [
                    [
                        [
                            8.7591,
                            50.5296
                        ],
                        [
                            12.872,
                            50.66655
                        ],
                        [
                            14.3451,
                            47.6552
                        ],
                        [
                            9.9063,
                            46.9968
                        ],
                        [
                            8.7591,
                            50.5296
                        ]
                    ]
                ],
                "type": "Polygon"
            },
            "region": [
                "DE-BY"
            ]
        }
    },
    "options": {
        "endpoint": "https://mobile.defas-fgi.de/beg/",
        "supportedOutputFormats": [
            "XML"
        ],
        "xmlOutputFormat": "compact"
    },
    "supportedLanguages": [
        "de",
        "en"
    ],
    "type": {
        "efa": true
    }
}
