{
    "KPlugin": {
        "Description": "Local public transport in and around Herrenberg, Germany.",
        "Description[ca@valencia]": "Transport públic local a Herrenberg i rodalia, Alemanya.",
        "Description[ca]": "Transport públic local a Herrenberg i rodalia, Alemanya.",
        "Description[cs]": "Místní doprava v Herrenbergu a okolí, Německo.",
        "Description[de]": "Lokale öffentliche Verkehrsmittel in und um Herrenberg, Deutschland.",
        "Description[en_GB]": "Local public transport in and around Herrenberg, Germany.",
        "Description[es]": "Transporte público local de Herrenberg y alrededores, Alemania.",
        "Description[et]": "Saksamaa Herrembergi ja selle ümbruse kohalik ühistransport.",
        "Description[fi]": "Paikallinen julkinen liikenne Saksan Herrenbergissä ympäristöineen.",
        "Description[fr]": "Transports régionaux dans et autour de la région de Münster, Allemagne.",
        "Description[it]": "Trasporto pubblico locale a Herrenberg e dintorni, Germania.",
        "Description[ko]": "독일 헤렌베르크 및 광역권 대중 교통입니다.",
        "Description[nl]": "Lokaal openbaar vervoer in en om Herrenberg, Duitsland.",
        "Description[pl]": "Lokalny transport publiczny w i wokół Herrenberg, Niemcy.",
        "Description[pt]": "Transportes públicos locais na região de Herrenberg, Alemanha.",
        "Description[pt_BR]": "Transporte público local na região de Herrenberg, Alemanha.",
        "Description[ru]": "Местный общественный транспорт в Херренберге и окрестностях, Германия.",
        "Description[sl]": "Lokalni javni prevoz v in okoli Herrenberga v Nemčiji.",
        "Description[sv]": "Lokal kollektivtrafik i och omkring Herrenberg, Tyskland.",
        "Description[tr]": "Almanya, Herrenberg içi ve çevresi yerel toplu taşıma.",
        "Description[uk]": "Місцевий транспорт у Герренберзі і околицях, Німеччина.",
        "Description[x-test]": "xxLocal public transport in and around Herrenberg, Germany.xx",
        "Description[zh_CN]": "德国黑伦贝格及其周边地区的公共交通。",
        "Name": "Stadtnavi",
        "Name[ca@valencia]": "Stadtnavi",
        "Name[ca]": "Stadtnavi",
        "Name[cs]": "Stadtnavi",
        "Name[de]": "Stadtnavi",
        "Name[en_GB]": "Stadtnavi",
        "Name[es]": "Stadtnavi",
        "Name[et]": "Stadtnavi",
        "Name[fi]": "Stadtnavi",
        "Name[fr]": "Stadtnavi",
        "Name[it]": "Stadtnavi",
        "Name[ko]": "Stadtnavi",
        "Name[nl]": "Stadtnavi",
        "Name[pl]": "Stadtnavi",
        "Name[pt]": "Stadtnavi",
        "Name[pt_BR]": "Stadtnavi",
        "Name[ru]": "Stadtnavi",
        "Name[sl]": "Stadtnavi",
        "Name[sv]": "Stadtnavi",
        "Name[tr]": "Stadtnavi",
        "Name[uk]": "Stadtnavi",
        "Name[x-test]": "xxStadtnavixx"
    },
    "attribution": {
        "homepage": "https://stadtnavi.de/",
        "mixedLicenses": true,
        "name": "Stadtnavi"
    },
    "comment": "See https://github.com/stadtnavi/digitransit-ui/blob/master/app/configurations/config.hb.js for their rental vehicle config and https://github.com/stadtnavi/static-gbfs-feeds for their dummy GBFS feeds that we ignore below",
    "coverage": {
        "realtimeCoverage": {
            "area": {
                "coordinates": [
                    [
                        [
                            7.503590600000001,
                            49.8348605
                        ],
                        [
                            11.082291,
                            49.8348605
                        ],
                        [
                            11.082291,
                            47.525812300000005
                        ],
                        [
                            7.503590600000001,
                            47.525812300000005
                        ],
                        [
                            7.503590600000001,
                            49.8348605
                        ]
                    ]
                ],
                "type": "Polygon"
            },
            "region": [
                "DE-BW"
            ]
        }
    },
    "options": {
        "apiVersion": "otp2",
        "endpoint": "https://api.stadtnavi.de/routing/v1/router/",
        "ifoptPrefix": "hbg",
        "rentalVehicleNetworks": {
            "car-sharing": {},
            "regiorad": {
                "name": "RegioRad",
                "vehicleTypes": "Bicycle"
            },
            "taxi": {}
        },
        "supportedTransitModes": [
            "TRANSIT",
            "CARPOOL"
        ]
    },
    "supportedLanguages": [
        "de"
    ],
    "timezone": "Europe/Berlin",
    "type": {
        "otpGraphQl": true
    }
}
