{
    "KPlugin": {
        "Description": "Local transport in and around Stuttgart, Germany.",
        "Description[ca@valencia]": "Transport local a Stuttgart i rodalia, Alemanya.",
        "Description[ca]": "Transport local a Stuttgart i rodalia, Alemanya.",
        "Description[cs]": "Místní doprava ve Stuttgartu a okolí, Německo.",
        "Description[de]": "Lokale Verkehrsmittel in und um Stuttgart, Deutschland.",
        "Description[en_GB]": "Local transport in and around Stuttgart, Germany.",
        "Description[es]": "Transporte local de Stuttgart y alrededores, Alemania.",
        "Description[et]": "Saksamaa Stuttgardi ja selle ümbruse kohalik transport.",
        "Description[fi]": "Paikallisliikenne Saksan Stuttgartissa ympäristöineen.",
        "Description[fr]": "Transports régionaux dans la région de Stuttgart, Allemagne.",
        "Description[it]": "Trasporto locale a Stoccarda e dintorni, Germania.",
        "Description[ko]": "독일 슈투트가르트 및 광역권 대중 교통입니다.",
        "Description[nl]": "Lokaal transport in en om Stuttgart, Duitsland.",
        "Description[pl]": "Transport lokalny w i wokół Stuttgartu, Niemcy.",
        "Description[pt]": "Transportes locais na região de Estugarda, Alemanha.",
        "Description[pt_BR]": "Transporte local na região de Stuttgart, Alemanha.",
        "Description[ru]": "Местный транспорт в Штутгарте и окрестностях, Германия.",
        "Description[sl]": "Lokalni prevoz v in okoli Stuttgarta, Nemčija.",
        "Description[sv]": "Lokal transportoperatör i och omkring Stuttgart, Tyskland.",
        "Description[tr]": "Almanya, Stuttart içi ve çevresi yerel taşıma.",
        "Description[uk]": "Місцевий транспорту Штутгарті і околицях, Німеччина.",
        "Description[x-test]": "xxLocal transport in and around Stuttgart, Germany.xx",
        "Description[zh_CN]": "德国斯图加特及其周边地区的公共交通。",
        "Name": "Verkehrs- und Tarifverbund Stuttgart (VVS)",
        "Name[ca@valencia]": "Verkehrs- und Tarifverbund Stuttgart (VVS)",
        "Name[ca]": "Verkehrs- und Tarifverbund Stuttgart (VVS)",
        "Name[cs]": "Verkehrs- und Tarifverbund Stuttgart (VVS)",
        "Name[de]": "Verkehrs- und Tarifverbund Stuttgart (VVS)",
        "Name[en_GB]": "Verkehrs- und Tarifverbund Stuttgart (VVS)",
        "Name[es]": "Verkehrs- und Tarifverbund Stuttgart (VVS)",
        "Name[et]": "Verkehrs- und Tarifverbund Stuttgart (VVS)",
        "Name[fi]": "Verkehrs- und Tarifverbund Stuttgart (VVS)",
        "Name[fr]": "Verkehrs- und Tarifverbund Stuttgart (VVS)",
        "Name[it]": "Verkehrs- und Tarifverbund Stuttgart (VVS)",
        "Name[ko]": "슈투트가르트 교통 조합(VVS)",
        "Name[nl]": "Verkehrs- und Tarifverbund Stuttgart (VVS)",
        "Name[pl]": "Verkehrs- und Tarifverbund Stuttgart (VVS)",
        "Name[pt]": "Verkehrs- und Tarifverbund Stuttgart (VVS)",
        "Name[pt_BR]": "Verkehrs- und Tarifverbund Stuttgart (VVS)",
        "Name[ru]": "Verkehrs- und Tarifverbund Stuttgart (VVS)",
        "Name[sk]": "Verkehrs- und Tarifverbund Stuttgart (VVS)",
        "Name[sl]": "Verkehrs- und Tarifverbund Stuttgart (VVS)",
        "Name[sv]": "Verkehrs- und Tarifverbund Stuttgart (VVS)",
        "Name[tr]": "Verkehrs- und Tarifverbund Stuttgart (VVS)",
        "Name[uk]": "Verkehrs- und Tarifverbund Stuttgart (VVS)",
        "Name[x-test]": "xxVerkehrs- und Tarifverbund Stuttgart (VVS)xx"
    },
    "coverage": {
        "realtimeCoverage": {
            "area": {
                "coordinates": [
                    [
                        [
                            10.1060625,
                            48.5088331
                        ],
                        [
                            10.02105,
                            48.8790401
                        ],
                        [
                            9.8950333,
                            48.890431
                        ],
                        [
                            9.6817035,
                            49.1894886
                        ],
                        [
                            8.7662144,
                            49.167992
                        ],
                        [
                            8.5917248,
                            48.3690197
                        ],
                        [
                            10.1060625,
                            48.5088331
                        ]
                    ]
                ],
                "type": "Polygon"
            },
            "region": [
                "DE-BW"
            ],
            "uicCompanyCodes": [
                "3202"
            ]
        }
    },
    "options": {
        "endpoint": "https://www2.vvs.de/vvs/",
        "supportedOutputFormats": [
            "XML",
            "JSON"
        ],
        "xmlOutputFormat": "full"
    },
    "supportedLanguages": [
        "de",
        "en"
    ],
    "type": {
        "efa": true
    }
}
