{
    "KPlugin": {
        "Description": "Public transport in Mecklenburg-Western Pomerania, Germany.",
        "Description[ca@valencia]": "Transport públic a Mecklenburg-Pomerània Occidental, Alemanya.",
        "Description[ca]": "Transport públic a Mecklenburg-Pomerània Occidental, Alemanya.",
        "Description[cs]": "Veřejná doprava v Mecklenburgu-Západním Pomořansku, Německo.",
        "Description[de]": "Öffentliche Verkehrsmittel in Nordwestmecklenburg, Deutschland.",
        "Description[en_GB]": "Public transport in Mecklenburg-Western Pomerania, Germany.",
        "Description[es]": "Transporte público de Mecklemburgo-Pomerania Occidental, Alemania.",
        "Description[et]": "Saksamaa Mecklenburgi-Ees-Pommeri ühistransport.",
        "Description[fi]": "Julkinen liikenne Saksan Mecklenburg-Etu-Pommerissa.",
        "Description[fr]": "Transports publics dans le Mecklenbourg-Poméranie-Occidentale, Allemagne.",
        "Description[it]": "Trasporto pubblico in Meclemburgo-Pomerania Anteriore, Germania.",
        "Description[ko]": "독일 메클렌부르크포어포메른의 대중 교통입니다.",
        "Description[nl]": "Openbaar vervoer in Mecklenburg-West-Pommeren, Duitsland.",
        "Description[pl]": "Transport publiczny Mecklenburg-Pomorze Zachodnie, Niemcy.",
        "Description[pt]": "Transportes públicos em Mecklenburg-Pomerânia Ocidental, Alemanha.",
        "Description[pt_BR]": "Transporte público em Mecklemburgo-Pomerânia Ocidental, Alemanha.",
        "Description[ru]": "Общественный транспорт в Мекленбурге — Западной Померании, Германия.",
        "Description[sl]": "Javni prevoz v Mecklenburg-Zahodna Pomerania, Nemčija.",
        "Description[sv]": "Kollektivtrafik i Mecklenburg-Vorpommern, Tyskland.",
        "Description[tr]": "Almanya, Mecklenburg-Batı Pomerania için yerel taşıma.",
        "Description[uk]": "Дані щодо громадського транспорту у землі Мекленбурґ-Західна Померанія, Німеччина.",
        "Description[x-test]": "xxPublic transport in Mecklenburg-Western Pomerania, Germany.xx",
        "Description[zh_CN]": "德国梅克伦堡-前波美拉尼亚的公共交通。",
        "Name": "Verkehrsgesellschaft Mecklenburg-Vorpommern (VMV)",
        "Name[ca@valencia]": "Verkehrsgesellschaft Mecklenburg-Vorpommern (VMV)",
        "Name[ca]": "Verkehrsgesellschaft Mecklenburg-Vorpommern (VMV)",
        "Name[cs]": "Verkehrsgesellschaft Mecklenburg-Vorpommern (VMV)",
        "Name[de]": "Verkehrsgesellschaft Mecklenburg-Vorpommern (VMV)",
        "Name[en_GB]": "Verkehrsgesellschaft Mecklenburg-Vorpommern (VMV)",
        "Name[es]": "Verkehrsgesellschaft Mecklenburg-Vorpommern (VMV)",
        "Name[et]": "Verkehrsgesellschaft Mecklenburg-Vorpommern (VMV)",
        "Name[fi]": "Verkehrsgesellschaft Mecklenburg-Vorpommern (VMV)",
        "Name[fr]": "Verkehrsgesellschaft Mecklenburg-Vorpommern (VMV)",
        "Name[it]": "Verkehrsgesellschaft Mecklenburg-Vorpommern (VMV)",
        "Name[ko]": "메클렌부르크포어포메른 교통 조합(VMV)",
        "Name[nl]": "Verkehrsgesellschaft Mecklenburg-Vorpommern (VMV)",
        "Name[pl]": "Verkehrsgesellschaft Mecklenburg-Vorpommern (VMV)",
        "Name[pt]": "Verkehrsgesellschaft Mecklenburg-Vorpommern (VMV)",
        "Name[pt_BR]": "Verkehrsgesellschaft Mecklenburg-Vorpommern (VMV)",
        "Name[ru]": "Verkehrsgesellschaft Mecklenburg-Vorpommern (VMV)",
        "Name[sl]": "Verkehrsgesellschaft Mecklenburg-Vorpommern (VMV)",
        "Name[sv]": "Verkehrsgesellschaft Mecklenburg-Vorpommern (VMV)",
        "Name[tr]": "Verkehrsgesellschaft Mecklenburg-Vorpommern (VMV)",
        "Name[uk]": "Verkehrsgesellschaft Mecklenburg-Vorpommern (VMV)",
        "Name[x-test]": "xxVerkehrsgesellschaft Mecklenburg-Vorpommern (VMV)xx"
    },
    "coverage": {
        "realtimeCoverage": {
            "area": {
                "coordinates": [
                    [
                        [
                            10.7879,
                            54.1154
                        ],
                        [
                            10.5114,
                            53.0571
                        ],
                        [
                            14.4201,
                            53.1954
                        ],
                        [
                            14.0957,
                            54.9238
                        ],
                        [
                            10.7879,
                            54.1154
                        ]
                    ]
                ],
                "type": "Polygon"
            },
            "region": [
                "DE-MV"
            ]
        }
    },
    "options": {
        "endpoint": "https://fahrplanauskunft-mv.de/vmv3/",
        "supportedOutputFormats": [
            "XML",
            "JSON"
        ],
        "xmlOutputFormat": "full"
    },
    "supportedLanguages": [
        "de",
        "en"
    ],
    "timezone": "Europe/Berlin",
    "type": {
        "efa": true
    }
}
