{
    "KPlugin": {
        "Description": "Public transport in southern Lower Saxony, Germany.",
        "Description[ca@valencia]": "Transport públic en la Baixa Saxònia meridional, Alemanya.",
        "Description[ca]": "Transport públic a la Baixa Saxònia meridional, Alemanya.",
        "Description[cs]": "Veřejná doprava v jižním Dolním Sasku, Německo.",
        "Description[de]": "Öffentliche Verkehrsmittel im südlichen Niedersachsen, Deutschland.",
        "Description[en_GB]": "Public transport in southern Lower Saxony, Germany.",
        "Description[es]": "Transporte público del sur de Baja Sajonia, Alemania.",
        "Description[fi]": "Julkinen liikenne Saksan eteläisessä Ala-Saksissa.",
        "Description[fr]": "Transports publics dans la Basse-Saxe du Sud, Allemagne.",
        "Description[it]": "Trasporto pubblico nella Bassa Sassonia meridionale, Germania.",
        "Description[ko]": "독일 니더작센 남부의 대중 교통입니다.",
        "Description[nl]": "Openbaar vervoer in Zuid Neder-Saksen, Duitsland.",
        "Description[pl]": "Transport publiczny w południowej Dolnej Saksonii, Niemcy.",
        "Description[pt]": "Transportes públicos do sul da Baixa-Saxónia, Alemanha.",
        "Description[pt_BR]": "Transporte público no sul da Baixa Saxônia, Alemanha.",
        "Description[ru]": "Общественный транспорт в южной Нижней Саксонии, Германия.",
        "Description[sl]": "Javni prevoz v južni Spodnji Saški, Nemčija.",
        "Description[sv]": "Kollektivtrafik i södra Niedersachsen, Tyskland.",
        "Description[tr]": "Almanya, Aşağı Güney Saksonya için toplu taşıma.",
        "Description[uk]": "Дані щодо громадського транспорту у південній Нижній Саксонії, Німеччина.",
        "Description[x-test]": "xxPublic transport in southern Lower Saxony, Germany.xx",
        "Description[zh_CN]": "德国下萨克森南部的公共交通。",
        "Name": "Verkehrsverbund Süd-Niedersachsen (VSN)",
        "Name[ca@valencia]": "Verkehrsverbund Süd-Niedersachsen (VSN)",
        "Name[ca]": "Verkehrsverbund Süd-Niedersachsen (VSN)",
        "Name[cs]": "Verkehrsverbund Süd-Niedersachsen (VSN)",
        "Name[de]": "Verkehrsverbund Süd-Niedersachsen (VSN)",
        "Name[en_GB]": "Verkehrsverbund Süd-Niedersachsen (VSN)",
        "Name[es]": "Verkehrsverbund Süd-Niedersachsen (VSN)",
        "Name[fi]": "Verkehrsverbund Süd-Niedersachsen (VSN)",
        "Name[fr]": "Verkehrsverbund Süd-Niedersachsen (VSN)",
        "Name[it]": "Verkehrsverbund Süd-Niedersachsen (VSN)",
        "Name[ko]": "남부 니더작센 교통 조합(VSN)",
        "Name[nl]": "Verkehrsverbund Süd-Niedersachsen (VSN)",
        "Name[pl]": "Verkehrsverbund Süd-Niedersachsen (VSN)",
        "Name[pt]": "Verkehrsverbund Süd-Niedersachsen (VSN)",
        "Name[pt_BR]": "Verkehrsverbund Süd-Niedersachsen (VSN)",
        "Name[ru]": "Verkehrsverbund Süd-Niedersachsen (VSN)",
        "Name[sl]": "Verkehrsverbund Süd-Niedersachsen (VSN)",
        "Name[sv]": "Verkehrsverbund Süd-Niedersachsen (VSN)",
        "Name[tr]": "Verkehrsverbund Süd-Niedersachsen (VSN)",
        "Name[uk]": "Verkehrsverbund Süd-Niedersachsen (VSN)",
        "Name[x-test]": "xxVerkehrsverbund Süd-Niedersachsen (VSN)xx"
    },
    "attribution": {
        "homepage": "https://vsninfo.de/",
        "isProprietary": true,
        "name": "Verkehrsverbund Süd-Niedersachsen GmbH"
    },
    "coverage": {
        "anyCoverage": {
            "area": {
                "coordinates": [
                    [
                        [
                            10.0527784,
                            50.2715847
                        ],
                        [
                            10.3388413,
                            50.7113531
                        ],
                        [
                            10.1414522,
                            50.7597134
                        ],
                        [
                            10.4657031,
                            51.2451686
                        ],
                        [
                            10.3413216,
                            51.3140011
                        ],
                        [
                            10.8409881,
                            51.4409768
                        ],
                        [
                            10.7655998,
                            51.893307
                        ],
                        [
                            11.2835431,
                            52.0609401
                        ],
                        [
                            10.9995318,
                            52.6874633
                        ],
                        [
                            11.3728836,
                            52.723217
                        ],
                        [
                            11.7613264,
                            52.9690497
                        ],
                        [
                            11.7518115,
                            53.1411564
                        ],
                        [
                            11.0426205,
                            53.4870466
                        ],
                        [
                            10.4380801,
                            53.573541
                        ],
                        [
                            10.2540569,
                            53.9334857
                        ],
                        [
                            9.7323597,
                            53.7375741
                        ],
                        [
                            9.3647325,
                            54.0110308
                        ],
                        [
                            8.5116213,
                            54.1901841
                        ],
                        [
                            6.7347979,
                            54.0284686
                        ],
                        [
                            6.1819782,
                            53.8280093
                        ],
                        [
                            6.1709161,
                            53.6347698
                        ],
                        [
                            7.0047134,
                            53.2193443
                        ],
                        [
                            6.9152685,
                            52.7997899
                        ],
                        [
                            6.642255,
                            52.811087
                        ],
                        [
                            6.475638,
                            52.3592026
                        ],
                        [
                            6.8722096,
                            52.307532
                        ],
                        [
                            6.9552357,
                            52.044616
                        ],
                        [
                            7.6698133,
                            52.2881698
                        ],
                        [
                            7.786613,
                            52.2446654
                        ],
                        [
                            7.8449631,
                            51.8540769
                        ],
                        [
                            8.2120861,
                            51.9167564
                        ],
                        [
                            8.2136902,
                            51.8673592
                        ],
                        [
                            8.2432149,
                            51.8583193
                        ],
                        [
                            8.1934521,
                            51.8408102
                        ],
                        [
                            8.3912012,
                            51.3689878
                        ],
                        [
                            8.3901653,
                            51.368379
                        ],
                        [
                            8.3922716,
                            51.1979919
                        ],
                        [
                            8.4598673,
                            51.160478
                        ],
                        [
                            8.2876684,
                            51.0311733
                        ],
                        [
                            8.3301267,
                            50.8454108
                        ],
                        [
                            9.4180421,
                            50.6309059
                        ],
                        [
                            9.3587398,
                            50.2146704
                        ],
                        [
                            10.0527784,
                            50.2715847
                        ]
                    ]
                ],
                "type": "Polygon"
            },
            "region": [
                "DE-HB",
                "DE-HE",
                "DE-HH",
                "DE-NI",
                "DE-NW"
            ]
        },
        "realtimeCoverage": {
            "area": {
                "coordinates": [
                    [
                        [
                            [
                                8.334987,
                                52.488987
                            ],
                            [
                                7.775013,
                                52.488987
                            ],
                            [
                                7.775013,
                                52.066013
                            ],
                            [
                                8.334987,
                                52.066013
                            ],
                            [
                                8.334987,
                                52.488987
                            ]
                        ]
                    ],
                    [
                        [
                            [
                                9.1196076,
                                52.9039066
                            ],
                            [
                                9.1533103,
                                53.1469138
                            ],
                            [
                                8.4032175,
                                53.4095922
                            ],
                            [
                                8.2814297,
                                53.1855903
                            ],
                            [
                                8.6798313,
                                52.8769471
                            ],
                            [
                                9.1196076,
                                52.9039066
                            ]
                        ]
                    ],
                    [
                        [
                            [
                                8.8998848,
                                53.7787842
                            ],
                            [
                                8.3655172,
                                53.7446756
                            ],
                            [
                                8.298992,
                                53.5559692
                            ],
                            [
                                8.660623,
                                53.2247039
                            ],
                            [
                                8.8998848,
                                53.7787842
                            ]
                        ]
                    ],
                    [
                        [
                            [
                                9.8838009,
                                51.2763628
                            ],
                            [
                                10.8286332,
                                51.5160328
                            ],
                            [
                                10.8386532,
                                51.7304483
                            ],
                            [
                                9.5231103,
                                52.1984998
                            ],
                            [
                                9.109232,
                                52.0023575
                            ],
                            [
                                9.2628637,
                                51.6710174
                            ],
                            [
                                8.9217751,
                                51.3015863
                            ],
                            [
                                8.97521,
                                51.1396601
                            ],
                            [
                                9.6644848,
                                51.0086847
                            ],
                            [
                                9.8838009,
                                51.2763628
                            ]
                        ]
                    ],
                    [
                        [
                            [
                                10.5615649,
                                53.292914
                            ],
                            [
                                10.242833,
                                53.9386566
                            ],
                            [
                                9.4274284,
                                53.5975366
                            ],
                            [
                                9.8599323,
                                53.2557188
                            ],
                            [
                                10.5615649,
                                53.292914
                            ]
                        ]
                    ],
                    [
                        [
                            [
                                10.8426282,
                                52.5084566
                            ],
                            [
                                10.2870161,
                                52.4541301
                            ],
                            [
                                10.2374808,
                                52.251751
                            ],
                            [
                                10.6611629,
                                51.9756436
                            ],
                            [
                                10.8426282,
                                52.5084566
                            ]
                        ]
                    ]
                ],
                "type": "MultiPolygon"
            },
            "region": [
                "DE-HB",
                "DE-HE",
                "DE-HH",
                "DE-NI"
            ]
        }
    },
    "options": {
        "auth": {
            "aid": "Mpf5UPC0DmzV8jkg",
            "type": "AID"
        },
        "client": {
            "id": "VSN",
            "type": "IPA"
        },
        "endpoint": "https://fahrplaner.vsninfo.de/hafas/mgate.exe",
        "micMacSalt": "535033316D4275665379434C6D4E7870",
        "products": [
            {
                "bitmasks": [
                    1
                ],
                "id": "nationalExpress",
                "mode": "LongDistanceTrain",
                "name": "InterCityExpress"
            },
            {
                "bitmasks": [
                    2
                ],
                "id": "national",
                "mode": "LongDistanceTrain",
                "name": "Fernzug"
            },
            {
                "bitmasks": [
                    4
                ],
                "id": "regionalExpress",
                "mode": "LocalTrain",
                "name": "RegionalExpress & InterRegio"
            },
            {
                "bitmasks": [
                    8
                ],
                "id": "regional",
                "mode": "LocalTrain",
                "name": "Nahverhehr"
            },
            {
                "bitmasks": [
                    16
                ],
                "id": "suburban",
                "mode": "RapidTransit",
                "name": "S-Bahn"
            },
            {
                "bitmasks": [
                    32
                ],
                "id": "bus",
                "mode": "Bus",
                "name": "Bus"
            },
            {
                "bitmasks": [
                    64
                ],
                "id": "ferry",
                "mode": "Ferry",
                "name": "Schiff"
            },
            {
                "bitmasks": [
                    128
                ],
                "id": "subway",
                "mode": "Metro",
                "name": "U-Bahn"
            },
            {
                "bitmasks": [
                    256
                ],
                "id": "tram",
                "mode": "Tramway",
                "name": "Straßen-/Stadtbahn"
            },
            {
                "bitmasks": [
                    512
                ],
                "id": "anrufSammelTaxi",
                "mode": "Taxi",
                "name": "Anruf-Sammel-Taxi"
            }
        ],
        "ver": "1.27"
    },
    "supportedLanguages": [
        "de"
    ],
    "timezone": "Europe/Berlin",
    "type": {
        "hafasMgate": true
    }
}
