{
    "KPlugin": {
        "Description": "Public transport in Bremen and Lower Saxony, Germany.",
        "Description[ca@valencia]": "Transport públic a Bremen i Baixa Saxònia, Alemanya.",
        "Description[ca]": "Transport públic a Bremen i Baixa Saxònia, Alemanya.",
        "Description[cs]": "Veřejná doprava v Brémách a Dolním Sasku, Německo.",
        "Description[de]": "Öffentliche Verkehrsmittel in Bremen und Niedersachsen, Deutschland.",
        "Description[en_GB]": "Public transport in Bremen and Lower Saxony, Germany.",
        "Description[es]": "Transporte público de Bremen y Baja Sajonia, Alemania.",
        "Description[et]": "Saksamaa Bremeni ja Alam-Saksimaa ühistransport.",
        "Description[fi]": "Julkinen liikenne Saksan Bremenissä ja Ala-Saksissa.",
        "Description[fr]": "Transports publics dans la Brême et la Basse-Saxe, Allemagne.",
        "Description[it]": "Trasporto pubblico a Brema e in Bassa Sassonia, Germania.",
        "Description[ko]": "독일 브레멘과 니더작센의 대중 교통입니다.",
        "Description[nl]": "Openbaar vervoer in Bremen en Neder-Saksen, Duitsland.",
        "Description[pl]": "Transport publiczny w Bremen i Dolnej Saksonii, Niemcy.",
        "Description[pt]": "Transportes públicos em Bremen e Baixa-Saxónia, Alemanha.",
        "Description[pt_BR]": "Transporte público em Bremen e na Baixa Saxônia, Alemanha.",
        "Description[ru]": "Общественный транспорт в Бремене и Нижней Саксонии, Германия.",
        "Description[sl]": "Javni prevoz v Bremenu in Spodnji Saški, Nemčija.",
        "Description[sv]": "Kollektivtrafik i Bremen och Niedersachsen, Tyskland.",
        "Description[tr]": "Almanya, Bremen ve Aşağı Saksonya için toplu taşıma.",
        "Description[uk]": "Дані щодо громадського транспорту у Бремені і Нижній Саксонії, Німеччина.",
        "Description[x-test]": "xxPublic transport in Bremen and Lower Saxony, Germany.xx",
        "Description[zh_CN]": "德国不来梅和下萨克森的公共交通。",
        "Name": "Verkehrsverbund Bremen/Niedersachsen (VBN)",
        "Name[ca@valencia]": "Verkehrsverbund Bremen/Niedersachsen (VBN)",
        "Name[ca]": "Verkehrsverbund Bremen/Niedersachsen (VBN)",
        "Name[cs]": "Verkehrsverbund Bremen/Niedersachsen (VBN)",
        "Name[de]": "Verkehrsverbund Bremen/Niedersachsen (VBN)",
        "Name[en_GB]": "Verkehrsverbund Bremen/Niedersachsen (VBN)",
        "Name[es]": "Verkehrsverbund Bremen/Niedersachsen (VBN)",
        "Name[et]": "Verkehrsverbund Bremen/Niedersachsen (VBN)",
        "Name[fi]": "Verkehrsverbund Bremen/Niedersachsen (VBN)",
        "Name[fr]": "Verkehrsverbund Bremen/Niedersachsen (VBN)",
        "Name[it]": "Verkehrsverbund Bremen/Niedersachsen (VBN)",
        "Name[ko]": "브레멘/니더작센 교통 조합(VBN)",
        "Name[nl]": "Verkehrsverbund Bremen/Niedersachsen (VBN)",
        "Name[pl]": "Verkehrsverbund Bremen/Niedersachsen (VBN)",
        "Name[pt]": "Verkehrsverbund Bremen/Niedersachsen (VBN)",
        "Name[pt_BR]": "Verkehrsverbund Bremen/Niedersachsen (VBN)",
        "Name[ru]": "Verkehrsverbund Bremen/Niedersachsen (VBN)",
        "Name[sl]": "Verkehrsverbund Bremen/Niedersachsen (VBN)",
        "Name[sv]": "Verkehrsverbund Bremen/Niedersachsen (VBN)",
        "Name[tr]": "Verkehrsverbund Bremen/Niedersachsen (VBN)",
        "Name[uk]": "Verkehrsverbund Bremen/Niedersachsen (VBN)",
        "Name[x-test]": "xxVerkehrsverbund Bremen/Niedersachsen (VBN)xx"
    },
    "attribution": {
        "homepage": "https://www.vbn.de/",
        "isProprietary": true,
        "name": "Verkehrsverbund Bremen/Niedersachsen"
    },
    "coverage": {
        "realtimeCoverage": {
            "area": {
                "coordinates": [
                    [
                        [
                            8.9371408,
                            52.3873722
                        ],
                        [
                            9.1612371,
                            52.6913736
                        ],
                        [
                            9.3636166,
                            52.5654272
                        ],
                        [
                            9.6686589,
                            52.9259937
                        ],
                        [
                            9.1295437,
                            53.3910997
                        ],
                        [
                            9.4374281,
                            53.7388762
                        ],
                        [
                            9.3781556,
                            53.9056634
                        ],
                        [
                            8.5365605,
                            54.0442877
                        ],
                        [
                            8.2512129,
                            53.6594581
                        ],
                        [
                            8.1126256,
                            53.8548709
                        ],
                        [
                            7.7184893,
                            53.8654243
                        ],
                        [
                            7.6295054,
                            53.7091925
                        ],
                        [
                            7.7754102,
                            53.4775468
                        ],
                        [
                            7.3759605,
                            53.0258507
                        ],
                        [
                            7.5851886,
                            52.892588
                        ],
                        [
                            7.4561646,
                            52.7630398
                        ],
                        [
                            7.5177546,
                            52.5858043
                        ],
                        [
                            7.8878729,
                            52.5417287
                        ],
                        [
                            7.9256675,
                            52.2774251
                        ],
                        [
                            8.9371408,
                            52.3873722
                        ]
                    ]
                ],
                "type": "Polygon"
            },
            "region": [
                "DE-HB",
                "DE-NI"
            ]
        }
    },
    "options": {
        "auth": {
            "aid": "kaoxIXLn03zCr2KR",
            "type": "AID"
        },
        "client": {
            "id": "VBN",
            "type": "AND"
        },
        "endpoint": "https://fahrplaner.vbn.de/hafas/mgate.exe",
        "micMacSalt": "535033316D4275665379434C6D4E7870",
        "products": [
            {
                "bitmasks": [
                    1
                ],
                "id": "express-train",
                "mode": "LongDistanceTrain",
                "name": "InterCityExpress"
            },
            {
                "bitmasks": [
                    2
                ],
                "mode": "LongDistanceTrain"
            },
            {
                "bitmasks": [
                    4
                ],
                "mode": "Train"
            },
            {
                "bitmasks": [
                    8
                ],
                "id": "local-train",
                "mode": "Train",
                "name": "Nahverkehr"
            },
            {
                "bitmasks": [
                    16
                ],
                "id": "suburban",
                "mode": "RapidTransit",
                "name": "S-Bahn"
            },
            {
                "bitmasks": [
                    32
                ],
                "id": "bus",
                "mode": "Bus",
                "name": "Bus"
            },
            {
                "bitmasks": [
                    64
                ],
                "id": "watercraft",
                "mode": "Ferry",
                "name": "Schiff"
            },
            {
                "bitmasks": [
                    128
                ],
                "id": "subway",
                "mode": "Metro",
                "name": "U-Bahn"
            },
            {
                "bitmasks": [
                    256
                ],
                "id": "tram",
                "mode": "Tramway",
                "name": "Tram"
            },
            {
                "bitmasks": [
                    512
                ],
                "id": "dial-a-ride",
                "mode": "Taxi",
                "name": "Anrufverkehr"
            }
        ],
        "ver": "1.27"
    },
    "supportedLanguages": [
        "de",
        "en"
    ],
    "timezone": "Europe/Berlin",
    "type": {
        "hafasMgate": true
    }
}
