{
    "KPlugin": {
        "Description": "Local transport in the Rhein-Sieg area, Germany.",
        "Description[ca@valencia]": "Transport local en l'àrea de Rin-Sieg, Alemanya.",
        "Description[ca]": "Transport local a l'àrea de Rin-Sieg, Alemanya.",
        "Description[cs]": "Místní doprava v oblasti Rhein-Sieg, Německo.",
        "Description[de]": "Lokale Verkehrsmittel im Gebiet Rhein-Sieg, Deutschland.",
        "Description[en_GB]": "Local transport in the Rhein-Sieg area, Germany.",
        "Description[es]": "Transporte local del área de Rin-Sieg, Alemania.",
        "Description[fi]": "Paikallisliikenne Saksan Rhein-Siegin alueella.",
        "Description[fr]": "Transports régionaux dans la région Rhin-Sieg, Allemagne.",
        "Description[it]": "Trasporto locale nell'area Reno-Sieg, Germania.",
        "Description[ko]": "독일 라인지크 지역 대중 교통입니다.",
        "Description[nl]": "Lokaal transport in het gebied Rhein-Sieg, Duitsland.",
        "Description[pl]": "Transport lokalny w obszarze Renu-Sieg, Niemcy.",
        "Description[pt]": "Transportes locais na região de Rhein-Sieg, Alemanha.",
        "Description[pt_BR]": "Transporte local na área de Reno-Sieg, Alemanha.",
        "Description[ru]": "Местный транспорт в области Рейн-Зиг, Германия.",
        "Description[sl]": "Lokalni transport na področju Rhein-Sieg, Nemčija.",
        "Description[sv]": "Lokal transportoperatör i Rhein-Sieg-området, Tyskland.",
        "Description[tr]": "Almanya, Rhein-Sieg bölgesi yerel taşıma.",
        "Description[uk]": "Місцевий транспорт у регіоні Райн-Зіг, Німеччина.",
        "Description[x-test]": "xxLocal transport in the Rhein-Sieg area, Germany.xx",
        "Description[zh_CN]": "德国莱茵-锡格地区的公共交通。",
        "Name": "Verkehrsverbund Rhein-Sieg (VRS)",
        "Name[ca@valencia]": "Verkehrsverbund Rhein-Sieg (VRS)",
        "Name[ca]": "Verkehrsverbund Rhein-Sieg (VRS)",
        "Name[cs]": "Verkehrsverbund Rhein-Sieg (VRS)",
        "Name[de]": "Verkehrsverbund Rhein-Sieg (VRS)",
        "Name[en_GB]": "Verkehrsverbund Rhein-Sieg (VRS)",
        "Name[es]": "Verkehrsverbund Rhein-Sieg (VRS)",
        "Name[fi]": "Verkehrsverbund Rhein-Sieg (VRS)",
        "Name[fr]": "Verkehrsverbund Rhein-Sieg (VRS)",
        "Name[it]": "Verkehrsverbund Rhein-Sieg (VRS)",
        "Name[ko]": "라인지크 교통 조합(VRS)",
        "Name[nl]": "Verkehrsverbund Rhein-Sieg (VRS)",
        "Name[pl]": "Verkehrsverbund Rhein-Sieg (VRS)",
        "Name[pt]": "Verkehrsverbund Rhein-Sieg (VRS)",
        "Name[pt_BR]": "Verkehrsverbund Rhein-Sieg (VRS)",
        "Name[ru]": "Verkehrsverbund Rhein-Sieg (VRS)",
        "Name[sl]": "Verkehrsverbund Rhein-Sieg (VRS)",
        "Name[sv]": "Verkehrsverbund Rhein-Sieg (VRS)",
        "Name[tr]": "Verkehrsverbund Rhein-Sieg (VRS)",
        "Name[uk]": "Verkehrsverbund Rhein-Sieg (VRS)",
        "Name[x-test]": "xxVerkehrsverbund Rhein-Sieg (VRS)xx"
    },
    "coverage": {
        "realtimeCoverage": {
            "area": {
                "coordinates": [
                    [
                        [
                            6.18421,
                            51.087
                        ],
                        [
                            7.6463,
                            51.35075
                        ],
                        [
                            7.9373,
                            50.796
                        ],
                        [
                            6.1636,
                            50.12835
                        ],
                        [
                            6.1842,
                            51.087
                        ]
                    ]
                ],
                "type": "Polygon"
            },
            "region": [
                "DE-NW"
            ],
            "vdvOrganizationIds": [
                "102",
                "6212"
            ]
        }
    },
    "options": {
        "endpoint": "https://ekapweb.vrs.de/"
    },
    "timezone": "Europe/Berlin",
    "type": {
        "ivvass": true
    }
}
