{
    "KPlugin": {
        "Description": "Public transport in North Rhine-Westphalia, Germany.",
        "Description[ca@valencia]": "Transport públic al Rin del Nord-Westfàlia, Alemanya.",
        "Description[ca]": "Transport públic al Rin del Nord-Westfàlia, Alemanya.",
        "Description[cs]": "Veřejná doprava v oblasti Porýní-Vestfálsko, Německo.",
        "Description[de]": "Öffentliche Verkehrsmittel in Nordrhein-Westfalen, Deutschland.",
        "Description[en_GB]": "Public transport in North Rhine-Westphalia, Germany.",
        "Description[es]": "Transporte público de Renania del Norte-Westfalia, Alemania.",
        "Description[et]": "Saksamaa Põhja-Rein-Vestfaali ühistransport.",
        "Description[fi]": "Julkinen liikenne Saksan Nordrhein-Westfalenissa.",
        "Description[fr]": "Transports régionaux en Rhénanie-du-Nord-Westphalie, Allemagne.",
        "Description[it]": "Trasporto pubblico locale in Renania Settentrionale-Vestfalia, Germania.",
        "Description[ko]": "독일 노르트라인베스트팔렌의 대중 교통입니다.",
        "Description[nl]": "Openbaar vervoer in Noord-Rijnland-Westfalen, Duitsland.",
        "Description[pl]": "Transport publiczny w Północnej Nadrenii-Westfalii, Niemcy.",
        "Description[pt]": "Transportes públicos no Norte do Reno-Vestfália, Alemanha.",
        "Description[pt_BR]": "Transporte público na Renânia do Norte-Vestfália, Alemanha.",
        "Description[ru]": "Общественный транспорт в Северном Рейне — Вестфалии, Германия.",
        "Description[sl]": "Javni prevoz v deželi Severno Porenje-Vestfalija, Nemčija.",
        "Description[sv]": "Kollektivtrafik i Nordrhein-Westfalen, Tyskland.",
        "Description[tr]": "Almanya, Kuzey Rhine-Westphalia için yerel taşıma.",
        "Description[uk]": "Громадський транспорт у землі Північна Рейн-Вестфалія, Німеччина.",
        "Description[x-test]": "xxPublic transport in North Rhine-Westphalia, Germany.xx",
        "Description[zh_CN]": "德国北莱茵-威斯特法伦的公共交通。",
        "Name": "Delfi NRW",
        "Name[ca@valencia]": "Delfi NRW",
        "Name[ca]": "Delfi NRW",
        "Name[cs]": "Delfi NRW",
        "Name[de]": "Delfi NRW",
        "Name[en_GB]": "Delfi NRW",
        "Name[es]": "Delfi NRW",
        "Name[et]": "Delfi NRW",
        "Name[fi]": "Delfi NRW",
        "Name[fr]": "Delfi NRW",
        "Name[it]": "Delfi NRW",
        "Name[ko]": "Delfi NRW",
        "Name[nl]": "Delfi NRW",
        "Name[pl]": "Delfi NRW",
        "Name[pt]": "Delfi NRW",
        "Name[pt_BR]": "Delfi NRW",
        "Name[ru]": "Delfi NRW",
        "Name[sl]": "Delfi NRW",
        "Name[sv]": "Delfi NRW",
        "Name[tr]": "Delfi NRW",
        "Name[uk]": "Delfi NRW",
        "Name[x-test]": "xxDelfi NRWxx"
    },
    "coverage": {
        "anyCoverage": {
            "area": {
                "coordinates": [
                    [
                        [
                            5.6532,
                            51.7795
                        ],
                        [
                            6.0541,
                            50.1499
                        ],
                        [
                            9.8753,
                            51.1244
                        ],
                        [
                            8.8895,
                            52.9446
                        ],
                        [
                            5.6532,
                            51.7795
                        ]
                    ]
                ],
                "type": "Polygon"
            },
            "region": [
                "DE-NW"
            ]
        }
    },
    "options": {
        "customCaCertificate": "thawte-rsa-ca-2018.pem",
        "endpoint": "https://delfi.nrw-zks.de/delfitrias/"
    },
    "supportedLanguages": [
        "en",
        "de"
    ],
    "timezone": "Europe/Berlin",
    "type": {
        "efa": true
    }
}
