{
    "KPlugin": {
        "Description": "Local transport in and around Hannover, Germany.",
        "Description[ca@valencia]": "Transport local a Hannover i rodalia, Alemanya.",
        "Description[ca]": "Transport local a Hannover i rodalia, Alemanya.",
        "Description[cs]": "Místní doprava v Hannoveru a okolí, Německo.",
        "Description[de]": "Lokale Verkehrsmittel in und um Hannover, Deutschland.",
        "Description[en_GB]": "Local transport in and around Hannover, Germany.",
        "Description[es]": "Transporte local de Hannover y alrededores, Alemania.",
        "Description[et]": "Saksamaa Hannoveri ja selle ümbruse kohalik transport.",
        "Description[fi]": "Paikallisliikenne Saksan Hannoverissa ympäristöineen.",
        "Description[fr]": "Transports régionaux dans la région de Hanovre, Allemagne.",
        "Description[it]": "Trasporto locale a Hannover e dintorni, Germania.",
        "Description[ko]": "독일 하노버 및 광역권 대중 교통입니다.",
        "Description[nl]": "Lokaal transport in en om Hannover, Duitsland.",
        "Description[pl]": "Transport lokalny w i wokół Hannoveru, Niemcy.",
        "Description[pt]": "Transportes locais na região de Hanôver, Alemanha.",
        "Description[pt_BR]": "Transporte local na região de Hanôver, Alemanha.",
        "Description[ru]": "Местный транспорт в Ганновере и окрестностях, Германия.",
        "Description[sl]": "Lokalni prevoz v mestu Hannover in okolici, Nemčija.",
        "Description[sv]": "Lokal transportoperatör i och omkring Hannover, Tyskland.",
        "Description[tr]": "Almanya, Hannover içi ve çevresi yerel taşıma.",
        "Description[uk]": "Місцевий транспорт у Ганновері і околицях, Німеччина.",
        "Description[x-test]": "xxLocal transport in and around Hannover, Germany.xx",
        "Description[zh_CN]": "德国汉诺威及其周边地区的公共交通。",
        "Name": "Großraum-Verkehr Hannover (GVH)",
        "Name[ca@valencia]": "Großraum-Verkehr Hannover (GVH)",
        "Name[ca]": "Großraum-Verkehr Hannover (GVH)",
        "Name[cs]": "Großraum-Verkehr Hannover (GVH)",
        "Name[de]": "Großraum-Verkehr Hannover (GVH)",
        "Name[en_GB]": "Großraum-Verkehr Hannover (GVH)",
        "Name[es]": "Großraum-Verkehr Hannover (GVH)",
        "Name[et]": "Großraum-Verkehr Hannover (GVH)",
        "Name[fi]": "Großraum-Verkehr Hannover (GVH)",
        "Name[fr]": "Großraum-Verkehr Hannover (GVH)",
        "Name[it]": "Großraum-Verkehr Hannover (GVH)",
        "Name[ko]": "하노버 광역권 교통 조합(GVH)",
        "Name[nl]": "Großraum-Verkehr Hannover (GVH)",
        "Name[pl]": "Großraum-Verkehr Hannover (GVH)",
        "Name[pt]": "Großraum-Verkehr Hannover (GVH)",
        "Name[pt_BR]": "Großraum-Verkehr Hannover (GVH)",
        "Name[ru]": "Großraum-Verkehr Hannover (GVH)",
        "Name[sk]": "Großraum-Verkehr Hannover (GVH)",
        "Name[sl]": "Großraum-Verkehr Hannover (GVH)",
        "Name[sv]": "Großraum-Verkehr Hannover (GVH)",
        "Name[tr]": "Großraum-Verkehr Hannover (GVH)",
        "Name[uk]": "Großraum-Verkehr Hannover (GVH)",
        "Name[x-test]": "xxGroßraum-Verkehr Hannover (GVH)xx"
    },
    "coverage": {
        "realtimeCoverage": {
            "area": {
                "coordinates": [
                    [
                        [
                            6.8558,
                            53.8848
                        ],
                        [
                            6.6065,
                            52.0076
                        ],
                        [
                            10.7129,
                            51.0397
                        ],
                        [
                            11.6759,
                            53.1955
                        ],
                        [
                            9.6178,
                            53.9532
                        ],
                        [
                            6.8558,
                            53.8848
                        ]
                    ]
                ],
                "type": "Polygon"
            },
            "region": [
                "DE-NI"
            ]
        }
    },
    "options": {
        "endpoint": "https://app.efa.de/mdv_server/app_gvh/",
        "supportedOutputFormats": [
            "XML",
            "JSON"
        ],
        "xmlOutputFormat": "full"
    },
    "supportedLanguages": [
        "de",
        "en"
    ],
    "type": {
        "efa": true
    }
}
