{
    "KPlugin": {
        "Description": "Local public transport in the Rhein-Neckar area.",
        "Description[ca@valencia]": "Transport públic local en l'àrea de Rin-Neckar.",
        "Description[ca]": "Transport públic local a l'àrea de Rin-Neckar.",
        "Description[cs]": "Místní doprava v oblasti Rhein-Neckar, Německo.",
        "Description[de]": "Lokale öffentliche Verkehrsmittel im Gebiet Rhein-Neckar.",
        "Description[en_GB]": "Local public transport in the Rhein-Neckar area.",
        "Description[es]": "Transporte público local del área de Rhein-Neckar.",
        "Description[fi]": "Paikallinen julkinen liikenne Saksan Rhein-Neckarin alueella.",
        "Description[fr]": "Transports régionaux dans la région Rhin-Neckar.",
        "Description[it]": "Trasporto pubblico locale nell'area Reno-Neckar, Germania.",
        "Description[ko]": "독일 라인네카어 지역 대중 교통입니다.",
        "Description[nl]": "Lokaal openbaar vervoer in het gebied Rijn-Neckar, Duitsland.",
        "Description[pl]": "Transport lokalny w obszarze Renu-Neckar, Niemcy.",
        "Description[pt]": "Transportes locais na área de Rhein-Neckar.",
        "Description[pt_BR]": "Transporte local na área de Reno-Neckar, Alemanha.",
        "Description[ru]": "Местный общественный транспорт в области Рейн-Неккар.",
        "Description[sl]": "Lokalni transport v področju Rhein-Neckar v Nemčiji.",
        "Description[sv]": "Lokal transportoperatör i Rhein-Neckar-området.",
        "Description[tr]": "Rhein-Neckar bölgesi yerel toplu taşıma.",
        "Description[uk]": "Місцевий громадський транспорт у регіоні Рейн-Неккар.",
        "Description[x-test]": "xxLocal public transport in the Rhein-Neckar area.xx",
        "Description[zh_CN]": "萊茵河-内卡河地区的公共交通。",
        "Name": "Verkehrsverbund Rhein-Neckar (VRN)",
        "Name[ca@valencia]": "Verkehrsverbund Rhein-Neckar (VRN)",
        "Name[ca]": "Verkehrsverbund Rhein-Neckar (VRN)",
        "Name[cs]": "Verkehrsverbund Rhein-Neckar (VRN)",
        "Name[de]": "Verkehrsverbund Rhein-Neckar (VRN)",
        "Name[en_GB]": "Verkehrsverbund Rhein-Neckar (VRN)",
        "Name[es]": "Verkehrsverbund Rhein-Neckar (VRN)",
        "Name[fi]": "Verkehrsverbund Rhein-Neckar (VRN)",
        "Name[fr]": "Verkehrsverbund Rhein-Neckar (VRN)",
        "Name[it]": "Verkehrsverbund Rhein-Neckar (VRN)",
        "Name[ka]": "Verkehrsverbund Rhein-Neckar (VRN)",
        "Name[ko]": "라인네카어 교통 조합(VRN)",
        "Name[nl]": "Verkehrsverbund Rhein-Neckar (VRN)",
        "Name[pl]": "Verkehrsverbund Rhein-Neckar (VRN)",
        "Name[pt]": "Verkehrsverbund Rhein-Neckar (VRN)",
        "Name[pt_BR]": "Verkehrsverbund Rhein-Neckar (VRN)",
        "Name[ru]": "Verkehrsverbund Rhein-Neckar (VRN)",
        "Name[sl]": "Verkehrsverbund Rhein-Neckar (VRN)",
        "Name[sv]": "Verkehrsverbund Rhein-Neckar (VRN)",
        "Name[tr]": "Verkehrsverbund Rhein-Neckar (VRN)",
        "Name[uk]": "Verkehrsverbund Rhein-Neckar (VRN)",
        "Name[x-test]": "xxVerkehrsverbund Rhein-Neckar (VRN)xx"
    },
    "attribution": {
        "homepage": "https://www.vrn.de/",
        "isProprietary": true,
        "name": "Verkehrsverbund Rhein-Neckar GmbH"
    },
    "coverage": {
        "realtimeCoverage": {
            "area": {
                "coordinates": [
                    [
                        [
                            8.3741851,
                            49.137327
                        ],
                        [
                            8.8898287,
                            49.024782
                        ],
                        [
                            9.3613353,
                            49.2446116
                        ],
                        [
                            10.2687532,
                            49.2580244
                        ],
                        [
                            10.3308915,
                            49.4441652
                        ],
                        [
                            9.6948684,
                            49.9369355
                        ],
                        [
                            9.2177009,
                            49.9040661
                        ],
                        [
                            9.1515641,
                            49.7472563
                        ],
                        [
                            9.1763307,
                            49.7180761
                        ],
                        [
                            8.9999252,
                            49.6536945
                        ],
                        [
                            8.8894178,
                            49.8775449
                        ],
                        [
                            8.3555376,
                            49.8931868
                        ],
                        [
                            8.2190235,
                            50.0818221
                        ],
                        [
                            7.65047,
                            49.7875747
                        ],
                        [
                            7.3921979,
                            49.8234396
                        ],
                        [
                            7.0801756,
                            49.4759774
                        ],
                        [
                            7.2427068,
                            49.0410434
                        ],
                        [
                            8.1152828,
                            48.8416391
                        ],
                        [
                            8.3741851,
                            49.137327
                        ]
                    ]
                ],
                "type": "Polygon"
            },
            "region": [
                "DE-BW",
                "DE-HE",
                "DE-RP"
            ]
        }
    },
    "options": {
        "auth": {
            "aid": "p091VRNZz79KtUz5",
            "type": "AID"
        },
        "client": {
            "id": "DB-REGIO-VRN",
            "type": "IPH"
        },
        "endpoint": "https://vrn.hafas.de/bin/mgate.exe",
        "ext": "DB.R19.04.a",
        "products": [
            {
                "bitmasks": [
                    1,
                    2,
                    4
                ],
                "id": "long-distance-train",
                "mode": "LongDistanceTrain",
                "name": "long-distance train"
            },
            {
                "bitmasks": [
                    8
                ],
                "id": "regional-train",
                "mode": "LocalTrain",
                "name": "regional train"
            },
            {
                "bitmasks": [
                    16
                ],
                "mode": "LocalTrain"
            },
            {
                "bitmasks": [
                    32
                ],
                "mode": "Bus"
            },
            {
                "bitmasks": [
                    128
                ],
                "id": "subway",
                "mode": "Metro",
                "name": "subway"
            },
            {
                "bitmasks": [
                    256
                ],
                "id": "tram",
                "mode": "Tramway",
                "name": "tram"
            },
            {
                "bitmasks": [
                    512
                ],
                "id": "dial-a-ride",
                "mode": "Taxi",
                "name": "dial-a-ride"
            }
        ],
        "ver": "1.24"
    },
    "supportedLanguages": [
        "de",
        "en"
    ],
    "timezone": "Europe/Berlin",
    "type": {
        "hafasMgate": true
    }
}
