{
    "KPlugin": {
        "Description": "Public transport in Saarland, Germany.",
        "Description[ca@valencia]": "Transport públic a Saarland, Alemanya.",
        "Description[ca]": "Transport públic a Saarland, Alemanya.",
        "Description[cs]": "Veřejná doprava v Sársku, Německo.",
        "Description[de]": "Öffentliche Verkehrsmittel im Saarland, Deutschland.",
        "Description[en_GB]": "Public transport in Saarland, Germany.",
        "Description[es]": "Transporte público de Sarre, Alemania.",
        "Description[et]": "Saksamaa Saarimaa ühistransport.",
        "Description[fi]": "Julkinen liikenne Saksan Saarinmaalla.",
        "Description[fr]": "Transports publics dans la Sarre, Allemagne.",
        "Description[it]": "Trasporto pubblico nel Saarland, Germania.",
        "Description[ko]": "독일 자를란트의 대중 교통입니다.",
        "Description[nl]": "Openbaar vervoer in Saarland, Duitsland.",
        "Description[pl]": "Transport publiczny w Saarland, Niemcy.",
        "Description[pt]": "Transportes públicos em Saarland, Alemanha.",
        "Description[pt_BR]": "Transporte público em Sarre, Alemanha.",
        "Description[ru]": "Общественный транспорт в Сааре, Германия.",
        "Description[sl]": "Javni prevoz v Saarlandu v Nemčiji.",
        "Description[sv]": "Kollektivtrafik i Saarland, Tyskland.",
        "Description[tr]": "Almanya, Saarland için toplu taşıma.",
        "Description[uk]": "Дані щодо громадського транспорту у землі Саар, Німеччина.",
        "Description[x-test]": "xxPublic transport in Saarland, Germany.xx",
        "Description[zh_CN]": "德国萨尔兰的公共交通。",
        "Name": "Saarländischer Verkehrsverbund (saarVV)",
        "Name[ca@valencia]": "Saarländischer Verkehrsverbund (saarVV)",
        "Name[ca]": "Saarländischer Verkehrsverbund (saarVV)",
        "Name[cs]": "Saarländischer Verkehrsverbund (saarVV)",
        "Name[de]": "Saarländischer Verkehrsverbund (saarVV)",
        "Name[en_GB]": "Saarländischer Verkehrsverbund (saarVV)",
        "Name[es]": "Saarländischer Verkehrsverbund (saarVV)",
        "Name[et]": "Saarländischer Verkehrsverbund (saarVV)",
        "Name[fi]": "Saarländischer Verkehrsverbund (saarVV)",
        "Name[fr]": "Saarländischer Verkehrsverbund (saarVV)",
        "Name[it]": "Saarländischer Verkehrsverbund (saarVV)",
        "Name[ka]": "Saarländischer Verkehrsverbund (saarVV)",
        "Name[ko]": "자를란트 교통 조합(saarVV)",
        "Name[nl]": "Saarländischer Verkehrsverbund (saarVV)",
        "Name[pl]": "Saarländischer Verkehrsverbund (saarVV)",
        "Name[pt]": "Saarländischer Verkehrsverbund (saarVV)",
        "Name[pt_BR]": "Saarländischer Verkehrsverbund (saarVV)",
        "Name[ru]": "Saarländischer Verkehrsverbund (saarVV)",
        "Name[sl]": "Saarländischer Verkehrsverbund (saarVV)",
        "Name[sv]": "Saarländischer Verkehrsverbund (saarVV)",
        "Name[tr]": "Saarländischer Verkehrsverbund (saarVV)",
        "Name[uk]": "Saarländischer Verkehrsverbund (saarVV)",
        "Name[x-test]": "xxSaarländischer Verkehrsverbund (saarVV)xx"
    },
    "attribution": {
        "homepage": "https://saarvv.de/",
        "isProprietary": true,
        "name": "Saarländische Nahverkehrs-Service GmbH (SNS)"
    },
    "coverage": {
        "realtimeCoverage": {
            "area": {
                "coordinates": [
                    [
                        [
                            7.5277949,
                            49.032409
                        ],
                        [
                            7.399868,
                            49.655471
                        ],
                        [
                            7.0407642,
                            49.7812131
                        ],
                        [
                            6.250409,
                            49.6540572
                        ],
                        [
                            6.1992833,
                            49.4911705
                        ],
                        [
                            6.6703604,
                            49.0363992
                        ],
                        [
                            7.0697473,
                            48.9668165
                        ],
                        [
                            7.5277949,
                            49.032409
                        ]
                    ]
                ],
                "type": "Polygon"
            },
            "region": [
                "DE-SL"
            ]
        }
    },
    "options": {
        "auth": {
            "aid": "51XfsVqgbdA6oXzHrx75jhlocRg6Xe",
            "type": "AID"
        },
        "client": {
            "id": "ZPS-SAAR",
            "name": "Saarfahrplan",
            "type": "AND"
        },
        "endpoint": "https://saarfahrplan.de/bin/mgate.exe",
        "micMacSalt": "484A746C756269737678694A787373",
        "products": [
            {
                "bitmasks": [
                    1,
                    2
                ],
                "id": "long-distance-train",
                "mode": "LongDistanceTrain",
                "name": "long-distance train"
            },
            {
                "bitmasks": [
                    4
                ],
                "mode": "Train"
            },
            {
                "bitmasks": [
                    8
                ],
                "id": "regional-train",
                "mode": "LocalTrain",
                "name": "regional train"
            },
            {
                "bitmasks": [
                    16
                ],
                "id": "urban-train",
                "mode": "RapidTransit",
                "name": "urban train"
            },
            {
                "bitmasks": [
                    32
                ],
                "mode": "Metro"
            },
            {
                "bitmasks": [
                    64
                ],
                "mode": "Tramway"
            },
            {
                "bitmasks": [
                    128
                ],
                "mode": "Bus"
            },
            {
                "bitmasks": [
                    256
                ],
                "id": "tram",
                "mode": "Tramway",
                "name": "tram"
            },
            {
                "bitmasks": [
                    512
                ],
                "id": "dial-a-ride",
                "mode": "Taxi",
                "name": "dial-a-ride"
            },
            {
                "bitmasks": [
                    1024
                ],
                "mode": "Bus"
            }
        ],
        "ver": "1.21"
    },
    "supportedLanguages": [
        "de",
        "en",
        "fr"
    ],
    "timezone": "Europe/Berlin",
    "type": {
        "hafasMgate": true
    }
}
