{
    "KPlugin": {
        "Description": "Joint service of European national railway operators.",
        "Description[ca@valencia]": "Servei conjunt dels operadors ferroviaris nacionals europeus.",
        "Description[ca]": "Servei conjunt dels operadors ferroviaris nacionals europeus.",
        "Description[de]": "Gemeinsamer Dienst der europäischen nationalen Bahnbetreiber.",
        "Description[en_GB]": "Joint service of European national railway operators.",
        "Description[es]": "Servicio conjunto europeo de operadores nacionales de ferrocarril.",
        "Description[et]": "Euroopa riiklike raudteeteenuste pakkujate ühisteenus.",
        "Description[fi]": "Euroopan kansallisten rautatieyhtiöiden yhteispalvelu.",
        "Description[fr]": "Alliance d'opérateurs de réseaux ferrés nationaux européens.",
        "Description[it]": "Servizio congiunto degli operatori ferroviari nazionali europei.",
        "Description[ko]": "유럽 국영 철도의 연합 서비스입니다.",
        "Description[nl]": "Gezamenlijke service van Europese nationale spoorwegbedrijven.",
        "Description[pl]": "Połączona usługa europejskich, państwowych operatorów kolejowych",
        "Description[pt]": "Serviço conjunto de operadores de caminhos de ferro nacionais europeus.",
        "Description[pt_BR]": "Serviço conjunto dos operadores ferroviários nacionais europeus.",
        "Description[ru]": "Совместная служба европейских национальных операторов железных дорог.",
        "Description[sl]": "Skupna služba evropskih nacionalnih železniških prevoznikov.",
        "Description[sv]": "Gemensam tjänst för europeiska nationella järnvägsoperatörer.",
        "Description[tr]": "Avrupa ulusal demiryolları operatörleri ortak hizmeti.",
        "Description[uk]": "Загальна служба європейських державних операторів залізниць.",
        "Description[x-test]": "xxJoint service of European national railway operators.xx",
        "Description[zh_CN]": "欧洲国家铁路运营单位的联合运营服务。",
        "Name": "Railteam",
        "Name[ca@valencia]": "Railteam",
        "Name[ca]": "Railteam",
        "Name[cs]": "Railteam",
        "Name[de]": "Railteam",
        "Name[en_GB]": "Railteam",
        "Name[es]": "Railteam",
        "Name[et]": "Railteam",
        "Name[fi]": "Railteam",
        "Name[fr]": "Railteam",
        "Name[it]": "Railteam",
        "Name[ka]": "Railteam",
        "Name[ko]": "Railteam",
        "Name[nl]": "Railteam",
        "Name[pl]": "Railteam",
        "Name[pt]": "Railteam",
        "Name[pt_BR]": "Railteam",
        "Name[ru]": "Railteam",
        "Name[sk]": "Railteam",
        "Name[sl]": "Railteam",
        "Name[sv]": "Railteam",
        "Name[tr]": "Railteam",
        "Name[uk]": "Railteam",
        "Name[x-test]": "xxRailteamxx"
    },
    "coverage": {
        "anyCoverage": {
            "area": {
                "coordinates": [
                    [
                        [
                            37.8068,
                            82.97
                        ],
                        [
                            35.3039,
                            33.9542
                        ],
                        [
                            -14.3375,
                            34.7885
                        ],
                        [
                            -36.3425,
                            86.3072
                        ],
                        [
                            37.8068,
                            82.97
                        ]
                    ]
                ],
                "type": "Polygon"
            },
            "region": [
                "EU"
            ]
        }
    },
    "options": {
        "endpoint": "http://railteam.hafas.eu/bin/",
        "locationIdentifierType": "rt",
        "products": [
            {
                "bitmasks": [
                    1
                ],
                "mode": "LongDistanceTrain"
            },
            {
                "bitmasks": [
                    2
                ],
                "mode": "LongDistanceTrain"
            },
            {
                "bitmasks": [
                    4
                ],
                "mode": "LocalTrain"
            },
            {
                "bitmasks": [
                    8
                ],
                "mode": "LocalTrain"
            },
            {
                "bitmasks": [
                    16
                ],
                "mode": "RapidTransit"
            },
            {
                "bitmasks": [
                    32
                ],
                "mode": "Bus"
            },
            {
                "bitmasks": [
                    64
                ],
                "mode": "Ferry"
            },
            {
                "bitmasks": [
                    128
                ],
                "mode": "Metro"
            },
            {
                "bitmasks": [
                    256
                ],
                "mode": "Tramway"
            }
        ],
        "standardLocationIdentifierCountries": [
            51,
            53,
            54,
            55,
            56,
            70,
            71,
            74,
            76,
            80,
            81,
            82,
            83,
            84,
            85,
            86,
            87,
            88
        ],
        "standardLocationIdentifierType": "ibnr"
    },
    "type": {
        "hafasQuery": true
    }
}
