{
    "KPlugin": {
        "Description": "Local public transport in and around Torino, Italy.",
        "Description[ca@valencia]": "Transport públic local a Torí i rodalia, Itàlia.",
        "Description[ca]": "Transport públic local a Torí i rodalia, Itàlia.",
        "Description[cs]": "Místní doprava v Turíně a okolí, Itálie.",
        "Description[de]": "Lokale öffentliche Verkehrsmittel in und um Turin, Italien.",
        "Description[en_GB]": "Local public transport in and around Torino, Italy.",
        "Description[es]": "Transporte público local de Turín y alrededores, Italia.",
        "Description[et]": "Itaalia Torino ja selle ümbruse kohalik ühistransport.",
        "Description[fi]": "Paikallinen julkinen liikenne Italian Torinossa ympäristöineen.",
        "Description[fr]": "Transports régionaux dans la région de Turin, Italie.",
        "Description[it]": "Trasporto pubblico locale a Torino e dintorni, Italia.",
        "Description[ko]": "이탈리아 토리노 및 광역권 대중 교통입니다.",
        "Description[nl]": "Lokaal openbaar vervoer in en om Torino, Italië.",
        "Description[pl]": "Lokalny transport publiczny w i wokół Turynu, Włochy.",
        "Description[pt]": "Transportes públicos locais na região de Turim, Itália.",
        "Description[pt_BR]": "Transporte público local e na região de Torino, Itália.",
        "Description[ru]": "Местный общественный транспорт в Турине и окрестностях, Италия.",
        "Description[sl]": "Lokalni javni prevoz v in okoli Torina v Italiji.",
        "Description[sv]": "Lokal transportoperatör i och omkring Torino, Italien.",
        "Description[tr]": "İtalya, Torino içi ve çevresi yerel toplu taşıma.",
        "Description[uk]": "Місцевий транспорт у Туріні і околицях, Італія.",
        "Description[x-test]": "xxLocal public transport in and around Torino, Italy.xx",
        "Description[zh_CN]": "意大利都灵及其周边地区的公共交通。",
        "Name": "Muoversi a Torino",
        "Name[ca@valencia]": "Muoversi a Torino",
        "Name[ca]": "Muoversi a Torino",
        "Name[cs]": "Muoversi a Torino",
        "Name[en_GB]": "Muoversi a Torino",
        "Name[es]": "Muoversi a Torino",
        "Name[et]": "Muoversi Torinos",
        "Name[fi]": "Muoversi a Torino",
        "Name[fr]": "Muoversi a Torino",
        "Name[it]": "Muoversi a Torino",
        "Name[ko]": "Muoversi a Torino",
        "Name[nl]": "Muoversi a Torino",
        "Name[pl]": "Muoversi a Torino",
        "Name[pt]": "Muoversi a Torino",
        "Name[pt_BR]": "Muoversi a Torino",
        "Name[ru]": "Muoversi a Torino",
        "Name[sl]": "Muoversi a Torino",
        "Name[sv]": "Muoversi a Torino",
        "Name[tr]": "Muoversi a Torino",
        "Name[uk]": "Muoversi a Torino",
        "Name[x-test]": "xxMuoversi a Torinoxx"
    },
    "coverage": {
        "anyCoverage": {
            "area": {
                "coordinates": [
                    [
                        [
                            11.247359,
                            43.776881
                        ],
                        [
                            7.623938,
                            43.789494
                        ],
                        [
                            6.93822,
                            44.39601
                        ],
                        [
                            6.6381177000000005,
                            45.104098900000004
                        ],
                        [
                            6.6395527,
                            45.1112849
                        ],
                        [
                            6.657883,
                            45.192791
                        ],
                        [
                            7.325321,
                            45.734711
                        ],
                        [
                            8.2964,
                            46.11542
                        ],
                        [
                            10.9827,
                            45.428666
                        ],
                        [
                            11.276394,
                            43.777492
                        ],
                        [
                            11.247359,
                            43.776881
                        ]
                    ]
                ],
                "type": "Polygon"
            },
            "region": [
                "IT-21"
            ]
        }
    },
    "options": {
        "apiVersion": "20170808",
        "endpoint": "https://mapi.5t.torino.it/routing/v1/routers/mat/"
    },
    "timezone": "Europe/Rome",
    "type": {
        "otpGraphQl": true
    }
}
