{
    "KPlugin": {
        "Description": "Public transport in Luxembourg.",
        "Description[ca@valencia]": "Transport públic a Luxemburg.",
        "Description[ca]": "Transport públic a Luxemburg.",
        "Description[cs]": "Veřejná doprava v Lucembursku.",
        "Description[de]": "Öffentliche Verkehrsmittel in Luxemburg.",
        "Description[en_GB]": "Public transport in Luxembourg.",
        "Description[es]": "Transporte público de Luxemburgo.",
        "Description[et]": "Luksemburgi ühistransport.",
        "Description[fi]": "Luxemburgin julkinen liikenne.",
        "Description[fr]": "Transports publics au Luxembourg.",
        "Description[it]": "Trasporto pubblico in Lussemburgo.",
        "Description[ko]": "룩셈부르크의 대중 교통입니다.",
        "Description[nl]": "Openbaar vervoer in Luxemburg.",
        "Description[pl]": "Transport publiczny w Luksemburgu.",
        "Description[pt]": "Transportes públicos no Luxemburgo.",
        "Description[pt_BR]": "Transporte público em Luxemburgo.",
        "Description[ru]": "Общественный транспорт в Люксембурге.",
        "Description[sl]": "Javni prevoz v Luksemburgu.",
        "Description[sv]": "Kollektivtrafik i Luxemburg.",
        "Description[tr]": "Lüksemburg içi toplu taşıma.",
        "Description[uk]": "Дані щодо громадського транспорту у Люксембурзі.",
        "Description[x-test]": "xxPublic transport in Luxembourg.xx",
        "Description[zh_CN]": "卢森堡的公共交通。",
        "Name": "Chemins de Fer Luxembourgeois (CFL)",
        "Name[ca@valencia]": "Chemins de Fer Luxembourgeois (CFL)",
        "Name[ca]": "Chemins de Fer Luxembourgeois (CFL)",
        "Name[de]": "Chemins de Fer Luxembourgeois (CFL)",
        "Name[en_GB]": "Chemins de Fer Luxembourgeois (CFL)",
        "Name[es]": "Chemins de Fer Luxembourgeois (CFL)",
        "Name[et]": "Chemins de Fer Luxembourgeois (CFL)",
        "Name[fi]": "Chemins de Fer Luxembourgeois (CFL)",
        "Name[fr]": "Chemins de Fer Luxembourgeois (CFL)",
        "Name[it]": "Chemins de Fer Luxembourgeois (CFL)",
        "Name[ko]": "룩셈부르크 철도(CFL)",
        "Name[nl]": "Chemins de Fer Luxembourgeois (CFL)",
        "Name[pl]": "Chemins de Fer Luxembourgeois (CFL)",
        "Name[pt]": "Caminhos de Ferro Luxemburgueses (CFL)",
        "Name[pt_BR]": "Chemins de Fer Luxembourgeois (CFL)",
        "Name[ru]": "Chemins de Fer Luxembourgeois (CFL)",
        "Name[sl]": "Chemins de Fer Luxembourgeois (CFL)",
        "Name[sv]": "Chemins de Fer Luxembourgeois (CFL)",
        "Name[tr]": "Chemins de Fer Luxembourgeois (CFL)",
        "Name[uk]": "Chemins de Fer Luxembourgeois (CFL)",
        "Name[x-test]": "xxChemins de Fer Luxembourgeois (CFL)xx"
    },
    "attribution": {
        "homepage": "https://www.cfl.lu/",
        "isProprietary": true,
        "name": "Société Nationale des Chemins de Fer Luxembourgeois"
    },
    "coverage": {
        "realtimeCoverage": {
            "area": {
                "coordinates": [
                    [
                        [
                            5.7234,
                            50.2093
                        ],
                        [
                            6.5341,
                            50.1182
                        ],
                        [
                            6.4621,
                            49.3772
                        ],
                        [
                            5.6922,
                            49.4688
                        ],
                        [
                            5.7234,
                            50.2093
                        ]
                    ]
                ],
                "type": "Polygon"
            },
            "region": [
                "LU"
            ],
            "uicCompanyCodes": [
                "0082"
            ]
        }
    },
    "options": {
        "auth": {
            "aid": "ALT2vl7LAFDFu2dz"
        },
        "client": {
            "id": "HAFAS",
            "type": "AND"
        },
        "endpoint": "https://horaires.cfl.lu/bin/mgate.exe",
        "products": [
            {
                "bitmasks": [
                    1
                ],
                "id": "long-distance-train-1",
                "mode": "LongDistanceTrain",
                "name": "TGV, ICE, EuroCity"
            },
            {
                "bitmasks": [
                    2
                ],
                "id": "long-distance-train-2",
                "mode": "LongDistanceTrain",
                "name": "TGV, ICE, EuroCity"
            },
            {
                "bitmasks": [
                    8
                ],
                "id": "local-train-1",
                "mode": "LocalTrain",
                "name": "local trains"
            },
            {
                "bitmasks": [
                    16
                ],
                "id": "local-train-2",
                "mode": "LocalTrain",
                "name": "local trains"
            },
            {
                "bitmasks": [
                    32
                ],
                "id": "bus",
                "mode": "Bus",
                "name": "bus"
            },
            {
                "bitmasks": [
                    64
                ],
                "mode": "Bus"
            },
            {
                "bitmasks": [
                    256
                ],
                "id": "tram",
                "mode": "Tramway",
                "name": "tram"
            },
            {
                "bitmasks": [
                    512
                ],
                "id": "funicular",
                "mode": "Funicular",
                "name": "Fun"
            }
        ],
        "ver": "1.16"
    },
    "supportedLanguages": [
        "de",
        "en",
        "fr"
    ],
    "timezone": "Europe/Luxembourg",
    "type": {
        "hafasMgate": true
    }
}
