{
    "KPlugin": {
        "Description": "Polish national railway.",
        "Description[ca@valencia]": "Ferrocarrils nacionals polonesos.",
        "Description[ca]": "Ferrocarrils nacionals polonesos.",
        "Description[cs]": "Polské národní železnice.",
        "Description[de]": "Nationale Eisenbahn in Polen.",
        "Description[en_GB]": "Polish national railway.",
        "Description[es]": "Compañía ferroviaria polaca.",
        "Description[et]": "Poola üleriigiline raudtee.",
        "Description[fi]": "Puolan kansallinen rautatie.",
        "Description[fr]": "Chemins de fer nationaux polonais.",
        "Description[it]": "Ferrovie nazionali polacche.",
        "Description[ko]": "폴란드 국유 철도입니다.",
        "Description[nl]": "Poolse nationale spoorweg.",
        "Description[pl]": "Polskie koleje państwowe.",
        "Description[pt]": "Caminhos de ferro nacionais da Polónia.",
        "Description[pt_BR]": "Ferrovia nacional polonesa.",
        "Description[ru]": "Польские национальные железные дороги.",
        "Description[sl]": "Poljska nacionalne železnice.",
        "Description[sv]": "Polsk statsjärnväg.",
        "Description[tr]": "Polonya ulusal demiryolları.",
        "Description[uk]": "Польська державна залізниця.",
        "Description[x-test]": "xxPolish national railway.xx",
        "Description[zh_CN]": "波兰国家铁路。",
        "Name": "Polskie Koleje Państwowe (PKP)",
        "Name[ca@valencia]": "Polskie Koleje Państwowe (PKP)",
        "Name[ca]": "Polskie Koleje Państwowe (PKP)",
        "Name[cs]": "Polskie Koleje Państwowe (PKP)",
        "Name[de]": "Polskie Koleje Państwowe (PKP)",
        "Name[en_GB]": "Polskie Koleje Państwowe (PKP)",
        "Name[es]": "Polskie Koleje Państwowe (PKP)",
        "Name[et]": "Polskie Koleje Państwowe (PKP)",
        "Name[fi]": "Polskie Koleje Państwowe (PKP)",
        "Name[fr]": "Polskie Koleje Państwowe (PKP)",
        "Name[it]": "Polskie Koleje Państwowe (PKP)",
        "Name[ko]": "폴란드 국유 철도(PKP)",
        "Name[nl]": "Polskie Koleje Państwowe (PKP)",
        "Name[pl]": "Polskie Koleje Państwowe (PKP)",
        "Name[pt]": "Polskie Koleje Państwowe (PKP)",
        "Name[pt_BR]": "Polskie Koleje Państwowe (PKP)",
        "Name[ru]": "Polskie Koleje Państwowe (PKP)",
        "Name[sk]": "Polskie Koleje Państwowe (PKP)",
        "Name[sl]": "Polskie Koleje Państwowe (PKP)",
        "Name[sv]": "Polskie Koleje Państwowe (PKP)",
        "Name[tr]": "Polskie Koleje Państwowe (PKP)",
        "Name[uk]": "Polskie Koleje Państwowe (PKP)",
        "Name[x-test]": "xxPolskie Koleje Państwowe (PKP)xx"
    },
    "coverage": {
        "realtimeCoverage": {
            "area": {
                "coordinates": [
                    [
                        [
                            13.5596,
                            54.3948
                        ],
                        [
                            14.8372,
                            50.3015
                        ],
                        [
                            23.0239,
                            48.5807
                        ],
                        [
                            25.5789,
                            52.1787
                        ],
                        [
                            22.007,
                            55.6724
                        ],
                        [
                            13.5596,
                            54.3948
                        ]
                    ]
                ],
                "type": "Polygon"
            },
            "region": [
                "PL"
            ],
            "uicCompanyCodes": [
                "0051",
                "1051",
                "1151",
                "1251",
                "1351"
            ]
        }
    },
    "options": {
        "auth": {
            "aid": "DrxJYtYZQpEBCtcb",
            "type": "AID"
        },
        "client": {
            "id": "HAFAS",
            "type": "AND"
        },
        "endpoint": "https://mobil.rozklad-pkp.pl:8019/bin/mgate.exe",
        "locationIdentifierType": "pkp",
        "products": [
            {
                "bitmasks": [
                    1
                ],
                "mode": "LongDistanceTrain"
            },
            {
                "bitmasks": [
                    2
                ],
                "mode": "LongDistanceTrain"
            },
            {
                "bitmasks": [
                    4
                ],
                "mode": "LocalTrain"
            },
            {
                "bitmasks": [
                    8
                ],
                "mode": "RapidTransit"
            },
            {
                "bitmasks": [
                    16
                ],
                "mode": "Bus"
            },
            {
                "bitmasks": [
                    32
                ],
                "mode": "Bus"
            },
            {
                "bitmasks": [
                    64
                ],
                "mode": "Ferry"
            }
        ],
        "standardLocationIdentifierCountries": [
            51,
            53,
            54,
            55,
            56,
            70,
            71,
            74,
            76,
            80,
            81,
            82,
            83,
            84,
            85,
            86,
            87,
            88
        ],
        "standardLocationIdentifierType": "ibnr",
        "ver": "1.21"
    },
    "supportedLanguages": [
        "en",
        "pl"
    ],
    "timezone": "Europe/Warsaw",
    "type": {
        "hafasMgate": true
    }
}
