{
    "KPlugin": {
        "Description": "Public transport in and around Los Angeles, US.",
        "Description[ca@valencia]": "Transport públic a Los Angeles i rodalia, EUA.",
        "Description[ca]": "Transport públic a Los Angeles i rodalia, EUA.",
        "Description[cs]": "Veřejná doprava v Los Angeles a okolí, USA.",
        "Description[de]": "Öffentliche Verkehrsmittel in und um Los Angeles, USA.",
        "Description[en_GB]": "Public transport in and around Los Angeles, US.",
        "Description[es]": "Transporte público de Los Ángeles y alrededores, Estados Unidos.",
        "Description[et]": "USA Los Angelese ja selle ümbruse ühistransport.",
        "Description[fi]": "Julkinen liikenne Yhdysvaltain Los Angelesissa ympäristöineen.",
        "Description[fr]": "Transports régionaux dans la région de Los Angeles, États-Unis.",
        "Description[it]": "Trasporto pubblico locale a Los Angeles e dintorni, Stati Uniti.",
        "Description[ko]": "미국 로스앤젤레스 시내 및 광역권 대중 교통입니다.",
        "Description[nl]": "Openbaar vervoer in en om Los Angelos, VS.",
        "Description[pl]": "Transport publiczny w i wokół Los Angeles, US.",
        "Description[pt]": "Transportes públicos locais na região de Los Angeles, EUA.",
        "Description[pt_BR]": "Transporte público na região de Los Angeles, EUA.",
        "Description[ru]": "Общественный транспорт в Лос-Анджелесе и окрестностях, США.",
        "Description[sl]": "Javni prevoz v in okoli Los Angelesa, ZDA.",
        "Description[sv]": "Kollektivtrafik i och omkring Los Angeles, USA.",
        "Description[tr]": "ABD, Los Angeles içi ve çevresi toplu taşıma.",
        "Description[uk]": "Громадський транспорт у Лос-Анджелесі і околицях, США.",
        "Description[x-test]": "xxPublic transport in and around Los Angeles, US.xx",
        "Description[zh_CN]": "美国洛杉矶及其周边地区的公共交通。",
        "Name": "Los Angeles Metro",
        "Name[ca@valencia]": "Los Angeles Metro",
        "Name[ca]": "Los Angeles Metro",
        "Name[cs]": "Los Angeles Metro",
        "Name[de]": "Los Angeles Metro",
        "Name[en_GB]": "Los Angeles Metro",
        "Name[es]": "Los Angeles Metro",
        "Name[et]": "Los Angelese metroo",
        "Name[fi]": "Los Angeles Metro",
        "Name[fr]": "Los Angeles Metro",
        "Name[it]": "Los Angeles Metro",
        "Name[ko]": "로스앤젤레스 메트로",
        "Name[nl]": "Los Angeles Metro",
        "Name[pl]": "Los Angeles Metro",
        "Name[pt]": "Metro de Los Angeles",
        "Name[pt_BR]": "Metrô de Los Angeles",
        "Name[ru]": "Los Angeles Metro",
        "Name[sl]": "Los Angeles Metro",
        "Name[sv]": "Los Angeles Metro",
        "Name[tr]": "Los Angeles Metro",
        "Name[uk]": "Метро Лос-Анджелеса",
        "Name[x-test]": "xxLos Angeles Metroxx"
    },
    "coverage": {
        "anyCoverage": {
            "area": {
                "coordinates": [
                    [
                        [
                            -119.5779026,
                            34.763663
                        ],
                        [
                            -116.51300990000001,
                            34.763663
                        ],
                        [
                            -116.51300990000001,
                            33.193150638074
                        ],
                        [
                            -119.5779026,
                            33.193150638074
                        ],
                        [
                            -119.5779026,
                            34.763663
                        ]
                    ]
                ],
                "type": "Polygon"
            },
            "region": [
                "US-CA"
            ]
        }
    },
    "options": {
        "endpoint": "https://otp.metroservices.io/otp/routers/default/"
    },
    "timezone": "America/Los_Angeles",
    "type": {
        "otpRest": true
    }
}
